%YAML 1.1
%TAG !u! tag:unity3d.com,2011:
--- !u!1045 &1
EditorBuildSettings:
  m_ObjectHideFlags: 0
  serializedVersion: 2
  m_Scenes:
  - enabled: 1
    path: Assets/SamplesResources/Scenes/0-Splash.unity
    guid: c821e2eca6ff325469f8a758a0d7e93e
  - enabled: 1
    path: Assets/SamplesResources/Scenes/1-Menu.unity
    guid: 26b79ed2f09264837b8e04ff19b5f1a8
  - enabled: 1
    path: Assets/SamplesResources/Scenes/2-Loading.unity
    guid: 03078236e6712c24a9dd679dfe864861
  - enabled: 1
    path: Assets/SamplesResources/Scenes/3-BackgroundTextureAccess.unity
    guid: ebdada1bc52d34d1192328e88f382b36
  - enabled: 1
    path: Assets/SamplesResources/Scenes/3-OcclusionManagement.unity
    guid: a950ead4035a2fd438b144c7863213bd
  m_configObjects: {}
